{
    "path" : "/net/utr/data/atf/jmerkin/burge",
    
    "species" : ["chicken", "cow", "human", "mouse", "rat", "rhesus"],

    "species_simple_to_latin" : { "chicken": "gallus_gallus",
                                  "cow": "bos_taurus",
                                  "human": "homo_sapiens",
                                  "mouse": "mus_musculus",
                                  "rat": "rattus_norvegicus",
                                  "rhesus": "macaca_mulatta"},

    "species_latin_to_simple" : { "gallus_gallus": "chicken",
                                  "bos_taurus" : "cow",
                                  "homo_sapiens" : "human",
                                  "mus_musculus" : "mouse",
                                  "rattus_norvegicus" : "rat",
                                  "macaca_mulatta" : "rhesus"},
    "add_chr_prefix": ["macaca_mulatta"],
    "Merkin_refs" : {"gallus_gallus": "galGal3",
                     "bos_taurus":    "bosTau4",
                     "homo_sapiens" : "hg19",
                     "mus_musculus" : "mm9",
                     "rattus_norvegicus" :   "rn4",
                     "macaca_mulatta": "rheMac2"
                     },
    
    "release-77_refs" : {"gallus_gallus": "galGal4",
                        "bos_taurus":    "bosTau6",
                        "homo_sapiens" : "hg38",
                        "mus_musculus" : "mm10",
                        "rattus_norvegicus" :   "rn5",
                        "macaca_mulatta": "rheMac2"
                       },

    "ensembl77_reference_names": { "chicken": "galgal4",
                                   "cow":    "UMD3.1",
                                   "human" : "GRCh38",
                                   "mouse" : "GRCh38",
                                   "rat" :   "Rnor_5.0",
                                   "rhesus": "MMUL_1"
                                 }

}
