{
    "mapping_dir":"/scratch/users/psudmant/mapping/homo_sapiens/HSA_ABCE1_ribo_profiling_SRP082436_REMAP/release-75/mapping",
    "fn_gtf_index":"/scratch/users/psudmant/genomes/ENSEMBL/release-75/gtf.index",
    "gtf_ID":"Homo_sapiens:75",
    "samples":[
            'SRS1630041_K562-GFP-shABCE1',
            'SRS1630042_K562-PH-shABCE1',
            'SRS1630043_K562-GFP-shCtrl',
            'SRS1630044_K562-PH-shCtrl',
            'SRS1630045_K562-GFP-0d',
            'SRS1630046_K562-GFP-2d',
            'SRS1630047_K562-GFP-4d',
            'SRS1630049_K562-PH-0d',
            'SRS1630050_K562-PH-2d',
            'SRS1630051_K562-PH-4d'
    ],
    "_samples":[
            'SRS1630041_K562-GFP-shABCE1',
            'SRS1630042_K562-PH-shABCE1',
            'SRS1630043_K562-GFP-shCtrl',
            'SRS1630044_K562-PH-shCtrl'
    ],
    "_samples":[
            'SRS1630043_K562-GFP-shCtrl'
    ]
}
